{
  "body": "[1,2,3,2]",
  "httpMethod": "POST",
  "headers": {
    "Content-Type": "application/json"
  },
  "path": "/your/path",
  "queryStringParameters": null,
  "requestContext": {
    "identity": {
      "sourceIp": "127.0.0.1"
    },
    "httpMethod": "POST",
    "path": "/your/path"
  }
}

